{
    "label": "Macros des actions",
    "entries": {
        "Lie: Deception": {
            "name": "Mentir : Duperie (Lie: Deception)"
        },
        "Administer First Aid - Stabilize: Medicine": {
            "name": "Prodiguer les premiers soins - Stabiliser : Médecine (Administer First Aid - Stabilize: Medicine)"
        },
        "Perform - Play percussion instrument: Performance": {
            "name": "Se produire - jouer d'un instrument à percussions : Représentation (Perform - Play percussion instrument: Performance)"
        },
        "Escape: Unarmed Attack": {
            "name": "S'échapper : Attaque à mains nues (Escape: Unarmed Attack)"
        },
        "Escape: Athletics": {
            "name": "S'échapper : Athlétisme (Escape: Athletics)"
        },
        "Steal: Thievery": {
            "name": "Voler : Vol (Steal: Thievery)"
        },
        "Pick a Lock: Thievery": {
            "name": "Crocheter une serrure : Vol (Pick a Lock: Thievery)"
        },
        "Decipher Writing: Religion": {
            "name": "Déchiffre un texte : Religion (Decipher Writing: Religion)"
        },
        "Subsist: Survival": {
            "name": "Subsister : Survie (Subsist: Survival)"
        },
        "Coerce: Intimidation": {
            "name": "Contraindre : Intimidation (Coerce: Intimidation)"
        },
        "Bon Mot: Diplomacy": {
            "name": "Bon mot : Diplomatie (Bon Mot: Diplomacy)"
        },
        "Craft: Crafting": {
            "name": "Fabriquer : Artisanat (Craft: Crafting)"
        },
        "Balance: Acrobatics": {
            "name": "Garder l'équilibre : Acrobaties (Balance: Acrobatics)"
        },
        "Sense Direction: Survival": {
            "name": "S'orienter : Survie (Sense Direction: Survival)"
        },
        "Gather Information: Diplomacy": {
            "name": "Recueillir des informations : Diplomatie (Gather Information: Diplomacy)"
        },
        "Long Jump: Athletics": {
            "name": "Saut en longueur : Athlétisme (Long Jump: Athletics)"
        },
        "Make an Impression: Diplomacy": {
            "name": "Faire bonne impression : Diplomatie (Make an Impression: Diplomacy)"
        },
        "Command an Animal: Nature": {
            "name": "Diriger un animal : Nature (Command an Animal: Nature)"
        },
        "Administer First Aid - Stop Bleeding: Medicine": {
            "name": "Prodiguer les premiers soins - Arrêter le saignement : Médecine (Administer First Aid - Stop Bleeding: Medicine)"
        },
        "Perform - Play string instrument: Performance": {
            "name": "Se produire - jouer d'un instrument à cordes : Représentation (Perform - Play string instrument: Performance)"
        },
        "Impersonate: Deception": {
            "name": "Se déguiser : Duperie (Impersonate: Deception)"
        },
        "Perform - Play keyboard instrument: Performance": {
            "name": "Se produire - jouer d'un instrument à clavier : Représentation (Perform - Play keyboard instrument: Performance)"
        },
        "Encouraging Words": {
            "name": "Paroles encourageantes (Encouraging Words)"
        },
        "Shove: Athletics": {
            "name": "Pousser : Athlétisme (Shove: Athletics)"
        },
        "Perform - Dance: Performance": {
            "name": "Se produire - danser : Représentation (Perform - Dance: Performance)"
        },
        "Perform - Comedy: Performance": {
            "name": "Se produire - jouer la comédie : Représentation (Perform - Comedy: Performance)"
        },
        "Palm an Object: Thievery": {
            "name": "Escamoter un objet : Vol (Palm an Object: Thievery)"
        },
        "Decipher Writing: Society": {
            "name": "Déchiffrer un texte : Société (Decipher Writing: Society)"
        },
        "Treat Poison: Medicine": {
            "name": "Soigner un empoisonnement : Médecine (Treat Poison: Medicine)"
        },
        "Tamper: Crafting": {
            "name": "Trafiquer : Artisanat (Tamper: Crafting)"
        },
        "Perform - Play wind instrument: Performance": {
            "name": "Se produire - jouer d'un instrument à vent : Représentation (Perform - Play wind instrument: Performance)"
        },
        "Perform - Acting: Performance": {
            "name": "Se produire - Art dramatique : Représentation (Perform - Acting: Performance)"
        },
        "Request: Diplomacy": {
            "name": "Solliciter : Diplomatie (Request: Diplomacy)"
        },
        "Create a Diversion - Trick: Deception": {
            "name": "Faire diversion - Astuce: Duperie (Create a Diversion - Trick: Deception)"
        },
        "Create a Diversion - Distracting Words: Deception": {
            "name": "Faire diversion - Paroles de diversion : Duperie (Create a Diversion - Distracting Words: Deception)"
        },
        "Create Forgery: Society": {
            "name": "Contrefaire : Société (Create Forgery: Society)"
        },
        "Maneuver in Flight: Acrobatics": {
            "name": "Manoeuvre en vol : Acrobaties (Maneuver in Flight: Acrobatics)"
        },
        "High Jump: Athletics": {
            "name": "Saut en hauteur : Athlétisme (High Jump: Athletics)"
        },
        "Sense Motive: Perception": {
            "name": "Deviner les intentions : Perception (Sense Motive: Perception)"
        },
        "Steel Your Resolve": {
            "name": "Puiser dans votre résolution (Steel Your Resolve)"
        },
        "Climb: Athletics": {
            "name": "Escalader : Athlétisme (Climb: Athletics)"
        },
        "Track: Survival": {
            "name": "Pister : Survie (Track: Survival)"
        },
        "Trip: Athletics": {
            "name": "Croc-en-jambe : Athlétisme (Trip: Athletics)"
        },
        "Repair: Crafting": {
            "name": "Réparer : Artisanat (Repair: Crafting)"
        },
        "Escape": {
            "name": "S'échapper (Escape)"
        },
        "Conceal an Object: Stealth": {
            "name": "Dissimuler un objet : Vol (Conceal an Object: Stealth)"
        },
        "Perform - Oratory: Performance": {
            "name": "Se produire - Art oratoire : Représentation (Perform - Oratory: Performance)"
        },
        "Athletics: Arcane Slam": {
            "name": "Athlétisme : Plaquage arcanique (Athletics: Arcane Slam)"
        },
        "Swim: Athletics": {
            "name": "Nager : Athlétisme (Swim: Athletics)"
        },
        "Sneak: Stealth": {
            "name": "Être furtif : Discrétion (Sneak: Stealth)"
        },
        "Reposition: Athletics": {
            "name": "Repositionner : Athlétisme (Reposition: Athletics)"
        },
        "Seek: Perception": {
            "name": "Chercher : Perception (Seek: Perception)"
        },
        "Treat Disease: Medicine": {
            "name": "Soigner la maladie : Médecine (Treat Disease: Medicine)"
        },
        "Exploration: Avoid Notice": {
            "name": "Exploration : Échapper aux regards (Exploration: Avoid Notice)"
        },
        "Subsist: Society": {
            "name": "Subsister : Société (Subsist: Society)"
        },
        "Whirling Throw: Athletics": {
            "name": "Projection en rotation : Athlétisme (Whirling Throw: Athletics)"
        },
        "Decipher Writing: Arcana": {
            "name": "Déchiffre un texte : Arcanes (Decipher Writing: Arcana)"
        },
        "Disable Device: Thievery": {
            "name": "Désamorcer un dispositif : Vol (Disable Device: Thievery)"
        },
        "Squeeze: Acrobatics": {
            "name": "Se serrer : Acrobaties (Squeeze: Acrobatics)"
        },
        "Disarm: Athletics": {
            "name": "Désarmer : Athlétisme (Disarm: Athletics)"
        },
        "Raise a Shield": {
            "name": "Lever un bouclier (Raise a Shield)"
        },
        "Feint: Deception": {
            "name": "Feinter : Duperie (Feint: Deception)"
        },
        "Force Open: Athletics": {
            "name": "Ouvrir de force : Athlétisme (Force Open: Athletics)"
        },
        "Demoralize: Intimidation": {
            "name": "Démoraliser : Intimidation (Demoralize: Intimidation)"
        },
        "Decipher Writing: Occultism": {
            "name": "Déchiffre un texte : Occultisme (Decipher Writing: Occultism)"
        },
        "Hide: Stealth": {
            "name": "Se cacher : Discrétion (Hide: Stealth)"
        },
        "Tumble Through: Acrobatics": {
            "name": "Déplacement acrobatique : Acrobaties (Tumble Through: Acrobatics)"
        },
        "Create a Diversion - Gesture: Deception": {
            "name": "Faire diversion - Geste : Duperie (Create a Diversion - Gesture: Deception)"
        },
        "Perform - Singing: Performance": {
            "name": "Se produire - chanter : Représentation (Perform - Singing: Performance)"
        },
        "Escape: Acrobatics": {
            "name": "S'échapper : Acrobaties (Escape: Acrobatics)"
        },
        "Grapple: Athletics": {
            "name": "Saisir : Athlétisme (Grapple: Athletics)"
        }
    },
    "mapping": {
        "description": "system.description.value"
    }
}