{
    "label": "Autres effets",
    "entries": {
        "Effect: -15-foot status penalty to your land Speed": {
            "name": "Effet : Pénalité de -4,5 m à votre Vitesse au sol (Effect: -15-foot status penalty to your land Speed)",
            "description": "<p>Appliqué par la @UUID[Compendium.pf2e.criticaldeck.JournalEntry.nI9pM4SeM39SRVaR]{Carte de coup critique #41}</p>\n<p>Pénalité de -4,5 m à votre Vitesse au sol</p>"
        },
        "Effect: +2 circumstance bonus to AC": {
            "name": "Effet : bonus de circonstances de +2 à la CA (Effect: +2 circumstance bonus to AC)",
            "description": "<p>Appliqué par @UUID[Compendium.pf2e.criticaldeck.JournalEntry.Wn47ZhXINo7jz8JZ]{Carte d'échec critique #2} et @UUID[Compendium.pf2e.criticaldeck.JournalEntry.YcQEfWxkmpMWXUz4]{Carte de coupo critique #49}</strong></p>\n<p>bonus de circonstances de +2 à la CA</p>"
        },
        "Effect: -2 circumstance penalty to ranged attacks": {
            "name": "Effet : pénalité de circonstances de -2 aux attaques à distance (Effect: -2 circumstance penalty to ranged attacks)",
            "description": "<p>Appliqué par @UUID[Compendium.pf2e.criticaldeck.JournalEntry.Wn47ZhXINo7jz8JZ]{Carte d'échec critique #2}</strong></p>\n<p>pénalité de circonstances de -2 aux attaques à distance</p>"
        },
        "Effect: +2 status bonus to AC and all saving throws": {
            "name": "Effet : bonus de statut de +2 à la CA et à tous les jets de sauvegarde (Effect: +2 status bonus to AC and all saving throws)",
            "description": "<p>Appliqué par @UUID[Compendium.pf2e.criticaldeck.JournalEntry.iZYZTEtihsVkbRKR]{Carte de coup critique #8}</p>\n<p>bonus de statut de +2 à la CA et à tous les jets de sauvegarde</p>"
        },
        "Effect: -2 circumstance penalty to spell attack rolls and spell DC's": {
            "name": "Effet : pénalité de circonstances de - 2 aux jets d'attaques des sorts et aux DD des sorts (Effect: -2 circumstance penalty to spell attack rolls and spell DC's)",
            "description": "<p>Appliqué par la @UUID[Compendium.pf2e.criticaldeck.JournalEntry.NNfsKAHcKvTuyha4]{Carte d'échec critique #36}</p>\n<p>pénalité de circonstances de - 2 aux jets d'attaques des sorts et aux DD des sorts</p>"
        },
        "Effect: Aquatic Combat": {
            "name": "Effet : Combat aquatique (Effect: Aquatic Combat)",
            "description": "<p>Utiliser ces règles pour les combats dans l'eau ou sous l'eau :</p>\n<ul>\n<li>Vous êtes @UUID[Compendium.pf2e.conditionitems.Item.AJh5ex99aV6VTggg]{Pris au dépourvu} à moins d'avoir une Vitesse de nage.</li>\n<li>Vous obtenez une résistance 5 à l'acide et au feu.</li>\n<li>Vous subissez une pénalité de circonstances de -2 aux attaques au corps-à-corps tranchantes ou contondantes qui franchissent l'eau.</li>\n<li>Les attaques à distance qui inflligent les dégâts contondants ou tranchants manquent automatiquement si l'attaquant ou la cible est sous l'eau, et les attaques à distance perforantes faites par une créature sous l'eau ou contre une cible sous l'eau ont leur facteurs de portée divisés par deux.</li>\n<li>Vous ne pouvez lancer des sorts de feu ou utiliser des actions avec le trait feu sous l'eau.</li>\n<li>À la discrétion du MJ, certaines actions basées sur le sol pourraient ne pas fonctionner sous l'eau ou alors que vous flottez.</li>\n</ul>"
        },
        "Effect: -2 circumstance penalty to checks and saving throws until healed": {
            "name": "Effet : pénalité de circonstances de -2 aux tests et aux jets de sauvegarde jusqu'aux soins (Effect: -2 circumstance penalty to checks and saving throws until healed)",
            "description": "<p>Appliqué par la @UUID[Compendium.pf2e.criticaldeck.JournalEntry.IvDJkDpe3JxMHaj1]{Carte d'échec critique #28}</p>\n<p>pénalité de circonstances de -2 aux tests et aux jets de sauvegarde jusqu'aux soins</p>"
        },
        "Effect: Mounted": {
            "name": "Effet : Monté (Effect: Mounted)",
            "description": "<p>Vous subissez une pénalité de circonstances de -2 aux jets de Réflexes lorsque vous êtes monté.</p>"
        },
        "Effect: -10-foot circumstance penalty to all Speeds": {
            "name": "Effet : pénalité de circonstances de -3 m à toutes les Vitesses (Effect: -10-foot circumstance penalty to all Speeds)",
            "description": "<p>Appliqué par @UUID[Compendium.pf2e.criticaldeck.JournalEntry.dP4Zy3ILcjWRx6ZO]{Carte de coup critique #45}</p>\n<p>pénalité de circonstances de -3 m à toutes les Vitesses</p>"
        },
        "Effect: Dazzled until end of your next turn": {
            "name": "Effet : Ébloui jusqu'aà la fin de votre prochain tour (Effect: Dazzled until end of your next turn)",
            "description": "<p><strong>Effet appliqué par @UUID[Compendium.pf2e.criticaldeck.JournalEntry.mwz1Ukw9laGyRocF]{Carte des échecs critiques #51} et @UUID[Compendium.pf2e.criticaldeck.JournalEntry.dvL063pJYJpCMsA6]{#52}</strong></p>\n<p>Vous êtes @UUID[Compendium.pf2e.conditionitems.Item.TkIyaNPgTZFBCCuh]{Ébloui} jusqu'à la fin de votre prochain tour.</p>"
        },
        "Effect: +4 circumstance bonus to AC against your ranged attacks": {
            "name": "Effet : bonus de circonstances de +4 à la CA contre vos attaques à distance (Effect: +4 circumstance bonus to AC against your ranged attacks)",
            "description": "<p>Appliqué par <strong>@UUID[Compendium.pf2e.criticaldeck.JournalEntry.4MkOtc3bBYsBGF97]{Carte d'échec critique #6}</strong></p>\n<p>L'abri procure un bonus de circonstances de +4 à la CA contre vos attaques à distance</p>",
            "rules": {
                "1": {
                    "label": "a un abri d'une cible de l'effet de critique surcompensé"
                }
            }
        },
        "Effect: Scouting (Incredible Scout)": {
            "name": "Effet : Éclaireur incroyable (Effect: Scouting (Incredible Scout))"
        },
        "Effect: Deafened until end of your next turn": {
            "name": "Effet : Sourd jusqu'à la fin de votre prochain tour (Effect: Deafened until end of your next turn)",
            "description": "<p><strong>Effet appliqué par @UUID[Compendium.pf2e.criticaldeck.JournalEntry.mcniWnifXwXkZocv]{Carte d'échec critique #41}</strong></p>\n<p>Vous êtes @UUID[Compendium.pf2e.conditionitems.Item.9PR9y0bi4JPKnHPR]{Sourd} jusqu'à la fin de votre prochain tour.</p>"
        },
        "Effect: Cover": {
            "name": "Effet : Abri (Effect: Cover)",
            "description": "<p>Lorsque vous vous trouvez derrière un obstacle qui peut bloquer les armes, vous protéger contre les explosions et vous rendre plus difficile à détecter, vous êtes à l'abri. Un abri standard vous donne un bonus de circonstances de +2 à la CA, aux jets de Réflexes contre les effets de zone, et aux tests de Discrétion pour Se cacher, Être furtif ou éviter également d'être détecté. Vous pouvez augmenter cet abri en utilisant l'action de base Se mettre à l'abri, ce qui passe le bonus de circonstances à +4. Si l'abri est particulièrement léger, typiquement lorsqu'il est fourni par une créature, vous disposez d'un abri partiel, qui accorde un bonus de circonstances de +1 à la CA. Une créature avec un abri standard ou un abri important peut tenter d'utiliser la Discrétion pour Se cacher mais un abri partiel n'est pas suffisant.</p>"
        },
        "Effect: Aid": {
            "name": "Effet : Aider (Effect: Aid)",
            "description": "<p>Vous obtenez un bonus de circonstances au test aidé en fonction du résultat du test pour Aider de votre allié.</p>"
        },
        "Effect: -1 circumstance penalty to attack rolls until you score a critical hit": {
            "name": "Effet : pénalité de circonstances de -1 aux jets d'attaque jusqu'à obtention d'un coup critique (Effect: -1 circumstance penalty to attack rolls until you score a critical hit)",
            "description": "<p>Appliqué par les cartes d'échec critique @UUID[Compendium.pf2e.criticaldeck.JournalEntry.kjoBsS79JcjUUPnr]{#38}, @UUID[Compendium.pf2e.criticaldeck.JournalEntry.qD8KoshDJsayGbCB]{#40}, @UUID[Compendium.pf2e.criticaldeck.JournalEntry.mcniWnifXwXkZocv]{#41} et @UUID[Compendium.pf2e.criticaldeck.JournalEntry.8D8NPBNMxQftBmyd]{#46}</p>\n<p>pénalité de circonstances de -1 aux jets d'attaque jusqu'à obtention d'un coup critique</p>"
        },
        "Effect: -10-foot status penalty to your land Speed": {
            "name": "Effet : pénalité de statut de -3 m à votre Vitesse (Effect: -10-foot status penalty to your land Speed)",
            "description": "<p>Appliqué par @UUID[Compendium.pf2e.criticaldeck.JournalEntry.maXudTqcDiAj86Ym]{Carte de coup critique #6}, @UUID[Compendium.pf2e.criticaldeck.JournalEntry.A0gsgMjgDpkOXtYp]{#12}, @UUID[Compendium.pf2e.criticaldeck.JournalEntry.wHwwHq9RcOUvwFeB]{#22} et @UUID[Compendium.pf2e.criticaldeck.JournalEntry.wCsoyffDxSWQ2c8o]{#46}</strong></p>\n<p>pénalité de statut de -3 m à votre Vitesse</p>"
        },
        "Effect: Follow The Expert": {
            "name": "Effet : Suivre l'expert (Effect: Follow The Expert)"
        },
        "Effect: -2 circumstance penalty to attack rolls until healed": {
            "name": "Effet : pénalité de circonstances de -2 aux jets d'attaque jusqu'aux soins (Effect: -2 circumstance penalty to attack rolls until healed)",
            "description": "<p>Appliqué par la @UUID[Compendium.pf2e.criticaldeck.JournalEntry.LY6T2YgrSoI79BDR]{Carte d'échec critique #8}</p>\n<p>pénalité de circonstances de -2 aux jets d'attaque jusqu'aux soins</p>"
        },
        "Effect: Adverse Subsist Situation": {
            "name": "Effet : Situation de (Effect: Adverse Subsist Situation)",
            "description": "<p>Vous rencontrez des problèmes, vous mangez quelque chose qui ne passe pas ou votre situation se détériore d'une façon ou d'une autre. Vous subissez une pénalité de circonstances de -2 aux tests pour Subsister pendant une semaine. Vous ne trouvez aucune nourriture. Si vous n'en avez pas en réserve, vous risquez de mourir de faim ou de soif si vous continuez à rater vos tests pour Subsister.</p>"
        },
        "Effect: +2 circumstance bonus to attack rolls": {
            "name": "Effet : bonus de circonstances de +2 aux jets d'attaque (Effect: +2 circumstance bonus to attack rolls)",
            "description": "<p>Appliqué par les cartes de coup critique @UUID[Compendium.pf2e.criticaldeck.JournalEntry.bzIzGjyNUc52lhCS]{#4}, @UUID[Compendium.pf2e.criticaldeck.JournalEntry.pjR0QGXE58oWS8uU]{#7} et @UUID[Compendium.pf2e.criticaldeck.JournalEntry.gdYlgrtfGK8mAoXK]{#9}</p>\n<p>bonus de circonstances de +2 aux jets d'attaque</p>"
        },
        "Effect: +2 status bonus to saving throws against spells for 1 min": {
            "name": "Effet : bonus de statut de +2 aux jets de sauvegarde contre les sorts (Effect: +2 status bonus to saving throws against spells for 1 min)",
            "description": "<p>Appliqué par @UUID[Compendium.pf2e.criticaldeck.JournalEntry.yBE9e9l5KW7SdHZH]{Carte d'échec critique #31}</p>\n<p>bonus de statut de +2 aux jets de sauvegarde contre les sorts</p>"
        },
        "Effect: Resistance 5 to all damage": {
            "name": "Effet : Résistance 5 à tous les dégâts (Effect: Resistance 5 to all damage)",
            "description": "<p>Appliqué par @UUID[Compendium.pf2e.criticaldeck.JournalEntry.TYTNFtVvFqFBM8oy]{Carte d'échec critique #43}</p>\n<p>Résistance 5 à tous les dégâts</p>"
        },
        "Effect: -5-foot status penalty to your land Speed": {
            "name": "Effet : pénalité de statut de -1,5 m à votre Vitesse au sol (Effect: -5-foot status penalty to your land Speed)",
            "description": "<p>Appliqué par les cartes de coup critique @UUID[Compendium.pf2e.criticaldeck.JournalEntry.maXudTqcDiAj86Ym]{#6}, @UUID[Compendium.pf2e.criticaldeck.JournalEntry.2CCPMTk5DlZslpOp]{#18} et @UUID[Compendium.pf2e.criticaldeck.JournalEntry.QR3e1uCNURvxDzbV]{#50}</strong></p>\n<p>pénalité de statut de -1,5 m à votre Vitesse au sol</p>"
        },
        "Effect: Off-Guard until end of your next turn": {
            "name": "Effet : Pris au dépourvu jusqu'à la fin de votre prochain tour (Effect: Off-Guard until end of your next turn)",
            "description": "<p>Appliqué par @UUID[Compendium.pf2e.criticaldeck.JournalEntry.IrUeMJoKEYUSJKs1]{Carte d'échec critique #19}, @UUID[Compendium.pf2e.criticaldeck.JournalEntry.gWa7wGUfUvYoIK8z]{#20}, @UUID[Compendium.pf2e.criticaldeck.JournalEntry.I5omhoK6rqfCZiUZ]{#21}, @UUID[Compendium.pf2e.criticaldeck.JournalEntry.Ps9VYxI2zJPG6PEV]{#22} et @UUID[Compendium.pf2e.criticaldeck.JournalEntry.qD8KoshDJsayGbCB]{#40}</strong></p>\n<p>Vous êtes @UUID[Compendium.pf2e.conditionitems.Item.AJh5ex99aV6VTggg]{Pris au dépourvu} jusqu'à la fin de votre prochain tour.</p>"
        },
        "Effect: +1 circumstance bonus to attack rolls for 3 rounds": {
            "name": "Effet : bonus de circonstances de +1 aux jets d'attaque pendant 3 rounds (Effect: +1 circumstance bonus to attack rolls for 3 rounds)",
            "description": "<p>Appliqué par @UUID[Compendium.pf2e.criticaldeck.JournalEntry.TbXmAqEzgW1nZV2r]{Carte d'échec critique #49}</p>\n<p>bonus de circonstances de +1 aux jets d'attaque pendant 3 rounds mais vous êtes Pris au dépourvu</p>"
        },
        "Effect: Avert Gaze": {
            "name": "Effet : Détourner le regard (Effect: Avert Gaze)",
            "description": "<p>Vous avez détourner le regard d'un danger, comme le regard d'une méduse. Vous obtenez un bonus de circonstances de +2 à vos jets de sauvegarde contre les capacités visuelles qui nécessitent que vous regardiez une créature ou un objet, comme le regard pétrifiant d'une méduse.</p>"
        },
        "Effect: -2 circumstance penalty to attack rolls with this weapon": {
            "name": "Effet : pénalité de circonstances de -2 aux jets d'attaque avec cette arme (Effect: -2 circumstance penalty to attack rolls with this weapon)",
            "description": "<p>Appliqué par @UUID[Compendium.pf2e.criticaldeck.JournalEntry.EP333dUdoJ8xdkzq]{Carte d'échec critique #5} et @UUID[Compendium.pf2e.criticaldeck.JournalEntry.YRY6c3WdBEuKiOCv]{#42}</p>\n<p>pénalité de circonstances de -2 aux jets d'attaque avec cette arme</p>"
        },
        "Effect: -2 circumstance penalty to attack rolls": {
            "name": "Effet : pénalité de circonstances de -2 aux jets d'attaque (Effect: -2 circumstance penalty to attack rolls)",
            "description": "<p>Appliqué par les cartes d'échec critique @UUID[Compendium.pf2e.criticaldeck.JournalEntry.wga13mR4vo73tbTY]{#10}, @UUID[Compendium.pf2e.criticaldeck.JournalEntry.xsBlA35rvfHSzJe4]{#15} et @UUID[Compendium.pf2e.criticaldeck.JournalEntry.1urnmEt4sn4ATDRL]{#29}</p>\n<p>pénalité de circonstances de -2 aux jets d'attaque</p>"
        },
        "Effect: Scouting": {
            "name": "Effet : Éclaireur (Effect: Scouting)"
        },
        "Effect: -2 circumstance penalty to attack rolls made with this attack until healed": {
            "name": "Effet : pénalité de circonstances de -2 aux jets d'attaque avec cette attaque jusqu'aux soins (Effect: -2 circumstance penalty to attack rolls made with this attack until healed)",
            "description": "<p>Appliqué par @UUID[Compendium.pf2e.criticaldeck.JournalEntry.HERWPcFlzK2FTPLJ]{Carte d'échec critique #47}</p>\n<p>pénalité de circonstances de -2 aux jets d'attaque avec cette attaque jusqu'aux soins</p>"
        },
        "Effect: +2 status bonus to attack rolls": {
            "name": "Effet : bonus de statut de +2 aux jets d'attaque (Effect: +2 status bonus to attack rolls)",
            "description": "<p>Appliqué par @UUID[Compendium.pf2e.criticaldeck.JournalEntry.wcqXFhggTcAutBk6]{Carte d'échec critique #29}</p>\n<p>bonus de statut de +2 aux jets d'attaque</p>"
        },
        "Effect: -10-foot circumstance penalty to your land Speed": {
            "name": "Effet - pénalité de circonstances de -3m à votre Vitesse (Effect: -10-foot circumstance penalty to your land Speed)",
            "description": "<p>Appliqué par @UUID[Compendium.pf2e.criticaldeck.JournalEntry.qD4ybNUceFacSJGu]{Critical Fumble Deck #3}, @UUID[Compendium.pf2e.criticaldeck.JournalEntry.DpY6k60UrpvKgjx2]{Critical Fumble Deck #4}, @UUID[Compendium.pf2e.criticaldeck.JournalEntry.99BxUbTtFlyPWkq5]{Carte d'échec critique #7}</strong></p>\n<p>pénalité de circonstances de -3m à votre Vitesse</p>"
        },
        "Effect: -5-foot circumstance penalty to your land Speed": {
            "name": "Effet : pénalité de circonstances de -1,5 m à votre Vitesse (Effect: -5-foot circumstance penalty to your land Speed)",
            "description": "<p>Appliqué par carte de coup critique/d'échec critique</p>\n<p>pénalité de circonstances de -1,5 m à votre Vitesse</p>"
        }
    },
    "mapping": {
        "description": "system.description.value",
        "gm": "system.description.gm",
        "rules": {
            "path": "system.rules",
            "converter": "translateRules"
        }
    }
}