{
    "label": "poings du phénix de rubis",
    "entries": {
        "Spirit Turtle": {
            "name": "Spirit Turtle (Esprit Tortue)",
            "description": "<p>Les esprits tortue sont sont des fey bienveillantes connues pour soigner ceux dans le besoin et accorder de puissants cadeaux. Ces géants pacifiques ressemblent à d'énormes tortues et contiennent souvent des écosystèmes entier sur leur carapace.</p>\n<p>Dans les temps anciens, la légende raconte qur les esprits tortue accordaient des vœux à de nombreux mortels. Après des millénaires, ces créatures géantes sont devenues las et se sont cachées ou retourné dans leur plan d'origine, le Premier Monde. Les quelques esprits tortues qui restent sur Golarion n'accorde désormais leurs faveurs qu'aux mortels les plus purs et les plus méritants.</p>",
            "hpdetails": "Régénération 25 (désactivé par Fer Froid ou Impie)",
            "items": {
                "0PUSeVnFQkVnEnvE": {
                    "name": "Heal (At Will) (Guérison (à volonté))"
                },
                "2tnz4SrOCmIg3BY3": {
                    "name": "Truespeech (Constant) (Language universel)"
                },
                "3pQHNMzKok6nZQQf": {
                    "name": "Foot (Patte)"
                },
                "4shMSfZVAKpASByp": {
                    "name": "Plane Shift (Self Only) (Téléportation interplanaire (soi uniquement))"
                },
                "AdZNLvSVUrTnCMhX": {
                    "name": "Environmental Balance (Équilibre de l'environement)",
                    "description": "<p><strong>Déclencheur</strong> L'esprit tortue démarre son tour</p>\n<hr />\n<p><strong>Effet</strong> L'esprit tortue se connecte avec le monde autour de lui pour améliorer ses attaques. Il choisit Acide, Froid, Électricité ou Feu. Les dégâts d'energie de leurs Frappes ou de leur Piétinement déséquilibrant change dans le type d'energie sélectionné.</p>"
                },
                "L55cGHsVWnyFTVtf": {
                    "name": "All Lores (Toutes les connaissances)"
                },
                "QfgHU32jJ9gNJKqK": {
                    "name": "Pacifying Aura (Aura pacificatrice)",
                    "description": "<p>30 m. Un esprit tortue diffuse constantament un sentiment de calme. Les créatures dans l'aura sont sujet au sort @UUID[Compendium.pf2e.spells-srd.Item.b515AZlB0sridKSq]{Apaisement} au rang 10 (Test de @Check[type:will|dc:44]). L'effet persiste pendant 1 heure, même si la créature sort de l'aura. Peu importe le résultat du jet de sauvegarde, la créature est immunisée pendant 1 heure.</p>"
                },
                "TDoWHdYfs4l8wP3w": {
                    "name": "Jaws (Mâchoires)"
                },
                "TizrvACkNftBOgQ5": {
                    "name": "Regeneration 25 (Deactivated by Cold Iron or Unholy) (Régénération 25 (désactivé par Fer Froid ou Impie))"
                },
                "U69NrBn0BfAI46no": {
                    "name": "Vital Beacon (At Will) (Fanal de vie (à volonté))"
                },
                "VVTdzsfNNrtH27Sy": {
                    "name": "Unbalancing Stomp (Piétinement déséquilibrant)",
                    "description": "<p>L'esprit tortue fait une Frappe avec ses Pattes. Quelque soit le résultat, le pietinement créé une onde de choc sur le sol (@Template[type:burst|distance:15]) centré autour de la cible. Toutes les créatures dans la zone autre que l'esprit tortue subissent 10d10 dégâts contondants, 4d8 dégâts d'energie, et sont mise @UUID[Compendium.pf2e.conditionitems.Item.j91X7x0XSomq8d60]{À terre} (Test de @Check[type:reflex|dc:41|basic:true]). Les créatures qui obtiennent un succès critique à leur jet de sauvegarde de réflexe ne sont pas mise à terre. L'esprit tortue ne peux pas utiliser Pietinemment désquilibrant pendant [[/br 1d4 #Recharge Unbalancing Stomp]]{1d4 rounds}.</p>\n<p>@Damage[10d10[bludgeoning],4d8[acid]]</p>\n<p>@Damage[10d10[bludgeoning],4d8[cold]]</p>\n<p>@Damage[10d10[bludgeoning],4d8[electricity]]</p>\n<p>@Damage[10d10[bludgeoning],4d8[fire]]</p>"
                },
                "uxaXiBDJrvCyT1Y8": {
                    "description": "<p>@Damage[(4d12+7)[bludgeoning]], @Check[type:fortitude|dc:41|basic:true]</p>\n<hr />\n<p>@Localize[PF2E.NPC.Abilities.Glossary.Constrict]</p>"
                },
                "yNEUcNtNackrwWaH": {
                    "name": "Primal Innate Spells (Sorts primordiaux innés)"
                }
            }
        },
        "Arms of Balance (Jivati Rovat)": {
            "name": "Arms of Balance (Jivati Rovat) (Bras de l'équilibre (Jivati Rovat))",
            "blurb": "Moine vishkanya",
            "cadetails": "37 vs. attaques à distance",
            "items": {
                "9PkEInCl5Jve7sCu": {
                    "name": "Flurry of Blows (Déluge de coups)"
                },
                "BkUWq2do6knbcAmi": {
                    "name": "+2 Greater Striking Flaming Handwraps of Mighty Blows (Bandelettes de coups puissants de flammes et de frappe supérieure +2)"
                },
                "Ck8A38JRQKr8v1FJ": {
                    "name": "Bracers of Armor II (Bandes de force supérieures)"
                },
                "FwRqVxAVssxx8z27": {
                    "name": "Fist (Poing)"
                },
                "IG9x5CCRJ66lkxTJ": {
                    "name": "Magma's Grasp (Poigne du magma)",
                    "description": "<p>Le moine expire un puissant souffle d'air, dont l'effet dépend du type d'énergie avec lequel il est en harmonie. Le moine ne peux pas utiliser cette capacité à nouveau avant [[/br 1d4 #Recharge Magma's Grasp]]{1d4 rounds}.</p>\n<p></p>\n<hr />\n<p><strong>Succès critique</strong> La créature n'est pas affectée.</p>\n<p><strong>Succès</strong> La créature subit la moitié des dégâts.</p>\n<p><strong>Échec</strong> La créature subit la totalité des dégâts et @Damage[1d6[persistent,fire]] dégâts et perd 1 point de focus. Si elle n'as pas de point de focus, la créature perd à la place un sort préparé aléatoire ou un sort du plus haut rang disponible (maximum 6ième rang).</p>\n<p><strong>Échec critique</strong> Comme un échec, mais la créature subit le double des dégâts et @Damage[2d6[persistent,fire]] dégâts.</p>"
                },
                "LbTt0cEbX1vHiPcI": {
                    "name": "Focus Spells (Sorts focalisés)"
                },
                "X5uAgkp3zxAGNKah": {
                    "name": "Tornado Lunge (Fente tornade)"
                },
                "sDZ4Ni8K7NK1hq7V": {
                    "name": "Wind Crash (Vents fracassants)"
                }
            }
        },
        "Arms of Balance (Pravan Majinapti)": {
            "name": "Arms of Balance (Pravan Majinapti) (Bras de l'équilibre (Pravan Majinapti))",
            "blurb": "Moine humain",
            "cadetails": "37 vs. attaques à distance",
            "items": {
                "7BVVramWGCbj0dc0": {
                    "name": "+2 greater Striking Frost Handwraps of Mighty Blows (Bandelettes de coups puissants de froid et de frappe supérieure +2)"
                },
                "9PkEInCl5Jve7sCu": {
                    "name": "Flurry of Blows (Déluge de coups)",
                    "description": "<p>Le moine fait deux Frappes avec des poings ou avec une arme de moine. Si les deux touchent la même créature, ajoutez leurs dégâts lorsqu'il s'agit de résistance et de faiblesse.</p>"
                },
                "Ck8A38JRQKr8v1FJ": {
                    "name": "Bracers of Armor II (Bandes de force supérieures)",
                    "description": "<p>Décorées de gemmes transparentes, ces épaisses bandes de métal dégagent une couche de force inflexible sur votre corps. Cette force vous accorde un bonus d'objet de +2 à la CA et aux jets de sauvegarde et un modificateur de Dextérité de +5 en tant qu'armure. Vous pouvez fixer des talismans aux bandes comme s'il s'agissait d'une armure légère.</p>\n<hr />\n<p><strong>Activation — Retour de force</strong> <span class=\"action-glyph\">R</span> (force, manipulation)</p>\n<p><strong>Déclencheur</strong> Une créature obtient un échec critique avec une Frappel au corps-à-corps</p>\n<hr />\n<p><strong>Effet</strong> Vous Poussez la créature en utilisant le modificateur d'Athlétisme des bandes de [[/r d20+21]]{+21}.</p>"
                },
                "FwRqVxAVssxx8z27": {
                    "name": "Fist (Poing)"
                },
                "LbTt0cEbX1vHiPcI": {
                    "name": "Focus Spells (Sorts focalisés)"
                },
                "WhjU9VyNWAsGZORc": {
                    "name": "Breath of the Glacier (Souffle du glacier)",
                    "description": "<p>Le moine expire un puissant souffle d'air, dont l'effet dépend du type d'énergie avec lequel il est en harmonie. Le moine ne peux pas utiliser cette capacité à nouveau avant [[/br 1d4 #Recharge Breath of the Glacier]]{1d4 rounds}.</p>\n<p>Pravan souffle des vents glacés dans un @Template[type:cone|distance:30], infligeant @Damage[10d6[cold]] dégâts. Les créatures dans la zone doivent faire un test de @Check[type:reflex|dc:33|traits:damaging-effect] alors que de la glace se forme autour d'eux. La pénalité de mouvement et l'immobilisaton causé par cette abilité persistent jusqu'à ce que la créature brise la glace ou s'échappe (DD 37 dans les deux cas), ou bien si la créature subit au moins 30 dégâts de feu.</p>\n<hr />\n<p><strong>Succès critique</strong> La créature n'est pas affectée.</p>\n<p><strong>Succès</strong> La créature subit la moitié des dégâts et subit une pénalité de -1,5 mètre à ses vitesses.</p>\n<p><strong>Échec</strong> La créature subit la totalité des dégâts et subit une pénalité de -4,5 mètre à ses vitesses.</p>\n<p><strong>Échec critique</strong> La créature subit le double des dégâts et est @UUID[Compendium.pf2e.conditionitems.Item.eIcWbB5o3pP6OIMe]{Immobilisée}.</p>"
                },
                "X5uAgkp3zxAGNKah": {
                    "name": "Tornado Lunge (Fente Tornade)"
                },
                "sDZ4Ni8K7NK1hq7V": {
                    "name": "Wind Crash (Vents fracassants)"
                }
            }
        },
        "Takatorra (Level 13)": {
            "name": "Takatorra (Level 13) (Takatorra (Niveau 13))",
            "blurb": "Maître épéiste non-binaire tengu",
            "items": {
                "FRXtWzTxZB6XNyar": {
                    "name": "Beak (Bec)"
                },
                "GfqJlycpJcVCanhY": {
                    "name": "Blade Barrage (Barrage de lame)",
                    "description": "<p>Takatorra déclenche un déluge d'attaques. Takatorra fait cinq Frappes au corps-à-corps. Les pénalités d'attaques multiples s'appliquent normalement. Il obtient un bonus de circonstances de +2 aux dégats pour chaque Frappe réussie. Si une cible est touchée par au moins deux de ces Frappes, elle subit aussi @Damage[2d6[bleed]]{2d6 dégâts de saignement}. Puis elle est @UUID[Compendium.pf2e.conditionitems.Item.dfCMdR4wnpbYNTix]{Étourdie 1} et @UUID[Compendium.pf2e.conditionitems.Item.AJh5ex99aV6VTggg]{Prise au dépourvu} jusqu'au début de son prochain tour.</p>\n<p>@UUID[Compendium.pf2e.bestiary-effects.Item.aMQxiTCdTxVcradv]{Effet : Barrage de Lame}</p>"
                },
                "SDaiauhRUkXKSVTW": {
                    "name": "Tengu Gale Blade (Lame tempête tengu)"
                },
                "ZMR3ejMWGzBk8M0a": {
                    "name": "Composite Longbow (Arc long composite)"
                },
                "gsPHz5TFhWFd9O10": {
                    "name": "Disarming Whirl (Tourbillon désarmant)",
                    "description": "<p>Takatorra tourne sur lui-même, frappant les armes de ses adversaires. Takatorra fait un test d'Athlétisme pour @UUID[Compendium.pf2e.actionspf2e.Item.Dt6B1slsBy8ipJu9]{Désarmer} contre chaque ennemi dans son allonge au corps-à-corps. Chaque tentative est prise en compte pour sa pénalité d'attaques multiples mais la pénalité n'augmente que lorsqu'il a fait toutes les tentatives.</p>"
                },
                "iIfPcJYhQdIStdAD": {
                    "name": "Attack of Opportunity (Special) (Frappe réactive (Spécial))",
                    "description": "<p>Si la Frappe réactive de Takatorra est un succès critique, il peut choisir de @UUID[Compendium.pf2e.actionspf2e.Item.Dt6B1slsBy8ipJu9]{Désarmer} automatiquement la créature ciblée en plus de lui infliger des dégâts.</p>\n<hr />\n<p>@Localize[PF2E.NPC.Abilities.Glossary.AttackOfOpportunity]</p>"
                },
                "qJ076zEgFCWVZExw": {
                    "name": "Soaring Flight (Voler haut)",
                    "description": "<p><strong>Fréquence</strong> une fois par jour</p>\n<hr />\n<p><strong>Effet</strong> Takatorra déploie ses ailes, obtenant une vitesse de vol de 7,5 m pendant 5 minutes.</p>"
                }
            }
        },
        "Arms of Balance (Usvani)": {
            "name": "Arms of Balance (Usvani) (Bras de l'équilibre (Usvani))",
            "blurb": "Moine vanara",
            "cadetails": "37 vs. attaques a distance",
            "items": {
                "9PkEInCl5Jve7sCu": {
                    "name": "Flurry of Blows (Déluge de coups)",
                    "description": "<p>Le moine fait deux Frappes avec des poings ou avec une arme de moine. Si les deux touchent la même créature, ajoutez leurs dégâts lorsqu'il s'agit de résistance et de faiblesse.</p>"
                },
                "Ck8A38JRQKr8v1FJ": {
                    "name": "Bracers of Armor II (Bandes de force supérieures)"
                },
                "FwRqVxAVssxx8z27": {
                    "name": "Fist (Poing)"
                },
                "LbTt0cEbX1vHiPcI": {
                    "name": "Focus Spells (Sorts focalisés)"
                },
                "Tl0T0mH9OvztIudm": {
                    "name": "+2 Greater Striking Corrosive Handwraps of Mighty Blows (Bandelettes de coups puissants corrosives et de frappe supérieure +2)"
                },
                "X5uAgkp3zxAGNKah": {
                    "name": "Tornado Lunge (Fente tornade)"
                },
                "pvqmeCjX7qvH9wJF": {
                    "name": "Breath of the Volcano (Souffle du Volcan)",
                    "description": "<p>Le moine expire un puissant souffle d'air, dont l'effet dépend du type d'énergie avec lequel il est en harmonie. Le moine ne peux pas utiliser cette capacité à nouveau avant [[/br 1d4 #Recharge Breath of the Volcano]]{1d4 rounds}.</p>\n<p>Usvani exhale un miasme de fumées acides dans une @Template[type:emanation|distance:15]. Une créature qui débute son tour dans l'aura subit @Damage[12d6[acid]] dégâts et fait un test de @Check[type:fortitude|dc:33|traits:damaging-effect].</p>\n<hr />\n<p><strong>Succès critique</strong> La créature n'est pas affectée.</p>\n<p><strong>Succès</strong> La créature subit la moitié des dégâts et est @UUID[Compendium.pf2e.conditionitems.Item.fesd1n5eVhpCSS18]{Malade/nauséeux 1}.</p>\n<p><strong>Échec</strong> La créature subit la totalité des dégâts et est @UUID[Compendium.pf2e.conditionitems.Item.fesd1n5eVhpCSS18]{Malade/nauséeux 2}.</p>\n<p><strong>Échec critique</strong> La créature subit le double des dégâts et est @UUID[Compendium.pf2e.conditionitems.Item.fesd1n5eVhpCSS18]{Malade/nauséeux 3}.</p>"
                },
                "sDZ4Ni8K7NK1hq7V": {
                    "name": "Wind Crash (Vents fracassants)"
                }
            }
        },
        "Golarion's Finest (Paunnima)": {
            "name": "Golarion's Finest (Paunnima) (Les Champions de Golarion (Paunnima))",
            "items": {
                "DKsQM7WbtcPBTDCg": {
                    "name": "Focus Spells (Sorts focalisés)"
                },
                "JaJJTCW8WSMz6nFc": {
                    "name": "Flurry of Blows (Déluge de coups)",
                    "description": "<p>Paunnima effectue deux Frappes à mains nues ou deux Frappes avec une arme de moine. Si les deux touchent la même créature, faites la somme de ses dégâts avant d'appliquer les résistances et les faiblesses.</p>"
                },
                "R18obny87brojB7E": {
                    "name": "Powerful Fists (Poings puissants)",
                    "description": "<p>Les poings de Paunnima sont considérés comme étant en fer froid et en argent et ne subissent pas de pénalité pour les attaques non-létales.</p>"
                },
                "SDc0i4HEPHX9vIGF": {
                    "name": "Bracers of Armor I (Bandes de force)",
                    "description": "<p>Décorées de gemmes transparentes, ces épaisses bandes de métal dégagent une couche de force inflexible sur votre corps. Cette force vous accorde un bonus d'objet de +1 à la CA et aux jets de sauvegarde et un modificateur de Dextérité de +5 en tant qu'armure. Vous pouvez fixer des talismans aux bandes comme s'il s'agissait d'une armure légère.</p>\n<hr />\n<p><strong>Activation — Retour de force</strong> <span class=\"action-glyph\">R</span> (force, manipulation)</p>\n<p><strong>Déclencheur</strong> Une créature obtient un échec critique avec une Frappe au corps-à-corps</p>\n<hr />\n<p><strong>Effet</strong> Vous Poussez la créature en utilisant le modificateur d'Athlétisme des bandes de [[/r d20+14]]{+14}.</p>"
                },
                "TwyDnVHbjPm7365q": {
                    "name": "Bo Staff (Bô)"
                },
                "WsYJheMbLRrldd9p": {
                    "name": "Knocking Sweep (Balayage étourdissant)",
                    "description": "<p>Paunnima fait tournoyer son arme dans un mouvement de balayage circulaire. Il fait un test d'Athlétisme pour faire un @UUID[Compendium.pf2e.actionspf2e.Item.ge56Lu1xXVFYUnLP]{Croc-en-jambe} à n'importe quel nombre de créature dans son allonge. Chaque test compte pour la pénalite d'attaque multiple de l'adepte, mais la pénalité d'attaque multiple n'augmente qu'après que toutes les attaques est étés réalisées.</p>"
                },
                "X71Y7xnRelM3iAqI": {
                    "name": "+1 Striking Handwraps of Mighty Blows (Bandelettes de coups puissants de frappe +1)"
                },
                "XbUbNlmwW7qrp1Mh": {
                    "name": "Dart (Fléchette)"
                },
                "aQaobvM2ryEesCVX": {
                    "name": "Punch Down (Coup bas)",
                    "description": "<p>Paunnima inflige 2d10 dégâts supplémentaires aux créatures @UUID[Compendium.pf2e.conditionitems.Item.j91X7x0XSomq8d60]{À terre}.</p>"
                },
                "u8kaZoasPbpNXnZS": {
                    "name": "Palm Flurry (Déluge des paumes)",
                    "description": "<p>Paunnima fait un nombre vertigineux de Frappes avec ses paumes, infligeant @Damage[1d8[bludgeoning]] à toutes les créature adjacentes. Pour chaque action additionelle qu'elle utilise pour le Déluge des paumes, les dégâts augmentent de 1d8 (@Damage[2d8[bludgeoning]]{2 actions}, @Damage[3d8[bludgeoning]]{3 actions}). Peu importe le nombre d'action qu'elle utilise, les cibles peuvent faire un test de @Check[type:reflex|dc:30|basic:true].</p>"
                },
                "xYgeYqc3OddCmnPf": {
                    "name": "Fist (Poing)"
                }
            }
        },
        "Golarion's Finest (Mingyu)": {
            "name": "Golarion's Finest (Mingyu) (Les Champions de Golarion (Mingyu))",
            "items": {
                "DKsQM7WbtcPBTDCg": {
                    "name": "Focus Spells (Sorts focalisés)"
                },
                "JaJJTCW8WSMz6nFc": {
                    "name": "Flurry of Blows (Déluge de coups)",
                    "description": "<p>Mingyu effectue deux Frappes à mains nues ou deux Frappes avec une arme de moine. Si les deux touchent la même créature, faites la somme de ses dégâts avant d'appliquer les résistances et les faiblesses.</p>"
                },
                "R18obny87brojB7E": {
                    "name": "Powerful Fists (Poings puissants)",
                    "description": "<p>Les poings de Mingyu sont considérés comme étant en fer froid et en argent et ne subissent pas de pénalité pour les attaques non-létales.</p>"
                },
                "SDc0i4HEPHX9vIGF": {
                    "name": "Bracers of Armor I (Bandes de force)",
                    "description": "<p>Décorées de gemmes transparentes, ces épaisses bandes de métal dégagent une couche de force inflexible sur votre corps. Cette force vous accorde un bonus d'objet de +1 à la CA et aux jets de sauvegarde et un modificateur de Dextérité de +5 en tant qu'armure. Vous pouvez fixer des talismans aux bandes comme s'il s'agissait d'une armure légère.</p>\n<hr />\n<p><strong>Activation — Retour de force</strong> <span class=\"action-glyph\">R</span> (force, manipulation)</p>\n<p><strong>Déclencheur</strong> Une créature obtient un échec critique avec une Frappe au corps-à-corps</p>\n<hr />\n<p><strong>Effet</strong> Vous Poussez la créature en utilisant le modificateur d'Athlétisme des bandes de [[/r d20+14]]{+14}.</p>"
                },
                "TwyDnVHbjPm7365q": {
                    "name": "Bo Staff (Bô)"
                },
                "WsYJheMbLRrldd9p": {
                    "name": "Knocking Sweep (Balayage étourdissant)",
                    "description": "<p>Mingyu fait tournoyer son arme dans un mouvement de balayage circulaire. Il fait un test d'Athlétisme pour faire un @UUID[Compendium.pf2e.actionspf2e.Item.ge56Lu1xXVFYUnLP]{Croc-en-jambe} à n'importe quel nombre de créature dans son allonge. Chaque test compte pour la pénalite d'attaque multiple de l'adepte, mais la pénalité d'attaque multiple n'augmente qu'après que toutes les attaques est étés réalisées.</p>"
                },
                "XRolFGgKYWgPQ6xz": {
                    "name": "+1 Striking Handwraps of Mighty Blows (Bandelettes de coups puissants de frappe +1)"
                },
                "XbUbNlmwW7qrp1Mh": {
                    "name": "Dart (Fléchette)"
                },
                "aQaobvM2ryEesCVX": {
                    "name": "Punch Down (Coup bas)",
                    "description": "<p>Mingyu inflige 2d10 dégâts supplémentaires aux créatures @UUID[Compendium.pf2e.conditionitems.Item.j91X7x0XSomq8d60]{À terre}.</p>"
                },
                "rDkaYkmqA8EDC2MR": {
                    "name": "Flying Kicks (Coups de pieds volants)",
                    "description": "<p>Mingyu tournoie à travers les airs, donnant un coup de pied à tous ses adversaires sur son chemin. Mingyu Marche Rapidement et peux faire jusqu'à trois Frappes pendant ce mouvement, chacun contre une cible différente dans son allonge. Ces attaques comptent pour la pénalité d'attaque multiple de Mingyu, mais la pénalité d'attaque multiple n'augmente qu'après que toutes les attaques est étés réalisées. Mingyu devient @UUID[Compendium.pf2e.conditionitems.Item.dfCMdR4wnpbYNTix]{Étourdi 1}.</p>"
                },
                "xYgeYqc3OddCmnPf": {
                    "name": "Fist (Poing)"
                }
            }
        },
        "Golarion's Finest (Brartork)": {
            "name": "Golarion's Finest (Brartork) (Les Champions de Golarion (Brartork))",
            "items": {
                "DKsQM7WbtcPBTDCg": {
                    "name": "Focus Spells (Sorts focalisés)"
                },
                "JaJJTCW8WSMz6nFc": {
                    "name": "Flurry of Blows (Déluge de coups)",
                    "description": "<p>Brartork effectue deux Frappes à mains nues ou deux Frappes avec une arme de moine. Si les deux touchent la même créature, faites la somme de ses dégâts avant d'appliquer les résistances et les faiblesses.</p>"
                },
                "R18obny87brojB7E": {
                    "name": "Powerful Fists (Poings puissants)",
                    "description": "<p>Les poings de Brartork sont considérés comme étant en fer froid et en argent et ne subissent pas de pénalité pour les attaques non-létales.</p>"
                },
                "SDc0i4HEPHX9vIGF": {
                    "name": "Bracers of Armor I (Bandes de force)",
                    "description": "<p>Décorées de gemmes transparentes, ces épaisses bandes de métal dégagent une couche de force inflexible sur votre corps. Cette force vous accorde un bonus d'objet de +1 à la CA et aux jets de sauvegarde et un modificateur de Dextérité de +5 en tant qu'armure. Vous pouvez fixer des talismans aux bandes comme s'il s'agissait d'une armure légère.</p>\n<hr />\n<p><strong>Activation — Retour de force</strong> <span class=\"action-glyph\">R</span> (force, manipulation)</p>\n<p><strong>Déclencheur</strong> Une créature obtient un échec critique avec une Frappe au corps-à-corps</p>\n<hr />\n<p><strong>Effet</strong> Vous Poussez la créature en utilisant le modificateur d'Athlétisme des bandes de [[/r d20+14]]{+14}.</p>"
                },
                "TwyDnVHbjPm7365q": {
                    "name": "Bo Staff (Bô)"
                },
                "WsYJheMbLRrldd9p": {
                    "name": "Knocking Sweep (Balayage étourdissant)",
                    "description": "<p>Brartork fait tournoyer son arme dans un mouvement de balayage circulaire. Il fait un test d'Athlétisme pour faire un @UUID[Compendium.pf2e.actionspf2e.Item.ge56Lu1xXVFYUnLP]{Croc-en-jambe} à n'importe quel nombre de créature dans son allonge. Chaque test compte pour la pénalite d'attaque multiple de l'adepte, mais la pénalité d'attaque multiple n'augmente qu'après que toutes les attaques est étés réalisées.</p>"
                },
                "XbUbNlmwW7qrp1Mh": {
                    "name": "Dart (Fléchette)"
                },
                "aQaobvM2ryEesCVX": {
                    "name": "Punch Down (Coup bas)",
                    "description": "<p>Brartork inflige 2d10 dégâts supplémentaires aux créatures @UUID[Compendium.pf2e.conditionitems.Item.j91X7x0XSomq8d60]{À terre}.</p>"
                },
                "h9ndHHINJMlDfWGF": {
                    "name": "Hurling Toss (Lancer tournoyant)",
                    "description": "<p><strong>Conditions</strong> Une créature est empoignée ou entravée par Brartork.</p>\n<hr />\n<p><strong>Effet</strong> Brartork fait un test de @Check[type:athletics|defense:fortitude] contre le DD de fortitude de la créature.</p>\n<hr />\n<p><strong>Succès critique</strong> Brartork lance la créature à 7.5 m, infligeant @Damage[2d8[bludgeoning]] dégâts, et la créature tombe @UUID[Compendium.pf2e.conditionitems.Item.j91X7x0XSomq8d60]{À terre}.</p>\n<p><strong>Succès</strong> Comme pour un succès critique, mais la créature ne tombe pas à terre.</p>\n<p><strong>Échec</strong> Brartork ne réussit pas à lancer la créature.</p>\n<p><strong>Échec critique</strong> Brartork ne réussit pas à lancer la créature, et la créature n'est plus empoignée ou entravée par Brartork.</p>"
                },
                "uQWPwar3WevITLIW": {
                    "name": "+1 Striking Handwraps of Mighty Blows (Bandelettes de coups puissants de frappe +1)"
                },
                "xYgeYqc3OddCmnPf": {
                    "name": "Fist (Poing)"
                }
            }
        },
        "Surjit Hamelan": {
            "name": "Surjit Hamelan",
            "blurb": "Gardien des scribes de la pluie gnome",
            "items": {
                "GEuHJzey2mGFUYrg": {
                    "name": "Camouflage",
                    "description": "<p>Tant qu'il est dans un terrain naturel, Surjit peut @UUID[Compendium.pf2e.actionspf2e.Item.VMozDqMMuK5kpoX4]{Se cacher} même si il est @UUID[Compendium.pf2e.conditionitems.Item.1wQY3JYyhMYeeV2G]{Observé}.</p>"
                },
                "IbG6EsCannEnXRo0": {
                    "description": "<p>Surjit inflige 2d6 dégâts de précision supplémentaire aux cibles @UUID[Compendium.pf2e.conditionitems.Item.AJh5ex99aV6VTggg]{Prise au dépourvue}.</p>"
                },
                "Ps8Cme5VgpZmRxZP": {
                    "name": "Sense the Unseen (Percevoir l'imperceptible)",
                    "description": "<p><strong>Déclencheur</strong> vous échouez à un test pour @UUID[Compendium.pf2e.actionspf2e.Item.BlAOM2X92SI6HMtJ]{Chercher}</p>\n<hr />\n<p>Quand vous cherchez des ennemis, vous pouvez capter le plus infime des signes, tels que leur moindre mouvement ou le changement des courants d'aair sur votre peau. Même si vous avez échoué au test déclencheur, vous percevez automatiquement toute créature Non détectée dans la zone où vous Cherchez, ce qui la rend simplement @UUID[Compendium.pf2e.conditionitems.Item.iU0fEDdBp3rXpTMC]{Cachée} à vos yeux.</p>"
                },
                "REgkjoAto0ZC7I0E": {
                    "name": "Hook Sword (Épée crochet)"
                },
                "SkfTUNlafcn5QAxv": {
                    "name": "Clear the Rain (Dissiper la pluie)",
                    "description": "<p>Surjit Marche rapidement deux fois. Ce mouvmeent n'est pas affecté par le terrain difficile. Les espaces traversés par Surjit deviennent du terrain normal plutôt que du terrain difficile (ou difficle plutôt que très difficile) jusqu'au début de son prochain tour.</p>"
                },
                "gTD4VEkGz2veh2m5": {
                    "name": "Attack of Opportunity (Special) (Frappe Réactive (Special))",
                    "description": "<p>Surjit peut utiliser une arme d'attaque à distance pour faire une Frappe Réactive comme si cette arme avais une allonge de 3 m.</p>\n<hr />\n<p>@Localize[PF2E.NPC.Abilities.Glossary.AttackOfOpportunity]</p>"
                },
                "nuOFWsGlneVYQ2jg": {
                    "name": "Composite Shortbow (Arc court composite)"
                },
                "qBmStn4qVEVjuW1j": {
                    "name": "Rain-Scribe Arrow (Flèche du scribe de la pluie)",
                    "description": "<p>Quand Surjit obtient un succès critique avec une arme à distance ou touche une créature pour la seconde fois du tour avec une arme à distance, Surjit peut tenter de contrer un effet magique sur la créature (Rang du contre: 7). Il utilise son modificateur d'attaque comme modificateur de contre.</p>"
                }
            }
        },
        "Golarion's Finest (Numoriz)": {
            "name": "Golarion's Finest (Numoriz) (Les Champions de Golarion (Numoriz))",
            "items": {
                "6FZceAme4fzxeX5D": {
                    "name": "Flip Kick (Coup de pied retourné)",
                    "description": "<p>Numoriz fait un saut périlleux retourné et donne un coup de pied violent à un de ces adversaire pendant la manœuvre. Numoriz Bondit de 1,5 m verticalement et de 1,5 m horizontalement dans n'importe quelle direction. Il fait une Frappe contre une créature dans son allonge durant de son mouvement, puis il tombe sans encombre sur le sol.</p>"
                },
                "DKsQM7WbtcPBTDCg": {
                    "name": "Focus Spells (Sorts focalisés)"
                },
                "JaJJTCW8WSMz6nFc": {
                    "name": "Flurry of Blows (Déluge de coups)",
                    "description": "<p>Numoriz effectue deux Frappes à mains nues ou deux Frappes avec une arme de moine. Si les deux touchent la même créature, faites la somme de ses dégâts avant d'appliquer les résistances et les faiblesses.</p>"
                },
                "R18obny87brojB7E": {
                    "name": "Powerful Fists (Poings puissants)",
                    "description": "<p>Les poings de Numoriz sont considérés comme étant en fer froid et en argent et ne subissent pas de pénalité pour les attaques non-létales.</p>"
                },
                "SDc0i4HEPHX9vIGF": {
                    "name": "Bracers of Armor I (Bandes de force)",
                    "description": "<p>Décorées de gemmes transparentes, ces épaisses bandes de métal dégagent une couche de force inflexible sur votre corps. Cette force vous accorde un bonus d'objet de +1 à la CA et aux jets de sauvegarde et un modificateur de Dextérité de +5 en tant qu'armure. Vous pouvez fixer des talismans aux bandes comme s'il s'agissait d'une armure légère.</p>\n<hr />\n<p><strong>Activation — Retour de force</strong> <span class=\"action-glyph\">R</span> (force, manipulation)</p>\n<p><strong>Déclencheur</strong> Une créature obtient un échec critique avec une Frappe au corps-à-corps</p>\n<hr />\n<p><strong>Effet</strong> Vous Poussez la créature en utilisant le modificateur d'Athlétisme des bandes de [[/r d20+14]]{+14}.</p>"
                },
                "TwyDnVHbjPm7365q": {
                    "name": "Bo Staff (Bô)"
                },
                "WsYJheMbLRrldd9p": {
                    "name": "Knocking Sweep (Balayage étourdissant)",
                    "description": "<p>Numoriz fait tournoyer son arme dans un mouvement de balayage circulaire. Il fait un test d'Athlétisme pour faire un @UUID[Compendium.pf2e.actionspf2e.Item.ge56Lu1xXVFYUnLP]{Croc-en-jambe} à n'importe quel nombre de créature dans son allonge. Chaque test compte pour la pénalite d'attaque multiple de l'adepte, mais la pénalité d'attaque multiple n'augmente qu'après que toutes les attaques est étés réalisées.</p>"
                },
                "XbUbNlmwW7qrp1Mh": {
                    "name": "Dart (Fléchette)"
                },
                "aQaobvM2ryEesCVX": {
                    "name": "Punch Down (Coup bas)",
                    "description": "<p>Numoriz inflige 2d10 dégâts supplémentaires aux créatures @UUID[Compendium.pf2e.conditionitems.Item.j91X7x0XSomq8d60]{À terre}.</p>"
                },
                "tsYTF3lzkFVyzlbS": {
                    "name": "+1 Striking Handwraps of Mighty Blows (Bandelettes de coups puissants de frappe +1)"
                },
                "xYgeYqc3OddCmnPf": {
                    "name": "Fist (Poing)"
                }
            }
        },
        "Taiga Yai": {
            "name": "Taiga Yai (Taïga Yai)",
            "description": "<p>Portant un masque de géant de la taïga, les taïga yais voyagent généralement seul, à la recherche de nouvelles expériences et destinations. Ils sont zélés dans leur amour de la nature dans sa forme la plus pure et détruisent toutes forme de civilisation qu'ils croisent avant de continuer leur route.</p>",
            "hpdetails": "Régénération 15 (désactivé par Feu)",
            "saves": "+1 de statut contre la magie",
            "items": {
                "41Pkc5M1SUb8W35t": {
                    "name": "Acid Missile (Missile acide)"
                },
                "OV6tSZOBQXPzE58n": {
                    "name": "+1 status to all saves vs. magic (+1 de statut contre la magie)"
                },
                "PCNkpVlmOHDZNMRH": {
                    "name": "Invisibility (at will, self only) (Invisibilité (à volonté, soi uniquement))"
                },
                "R6JvT0avo1LeaFDw": {
                    "name": "Regeneration 15 (Deactivated by Fire) (Régénération 15 (désactivé par Feu))"
                },
                "RbqTjLRLrXz6zrTi": {
                    "name": "Entangle (At Will) (Flore enchevêtrante (à volonté))"
                },
                "VZNQk0gGZTm0WKpI": {
                    "name": "Shortbow (Arc court)"
                },
                "frXoSlduBV8WhsoJ": {
                    "name": "Botanic Interruption (Interruption botanique)",
                    "description": "<p><strong>Déclencheur</strong> Le taïga yai est dans un feuillage naturel ou dans des broussailles et est la cible d'une attaque de mêlée</p>\n<hr />\n<p><strong>Effet</strong> Le taïga yai infuse ses pouvoir dans les plantes autour de lui, qui poussent et créént une barrière protectrice. Le taïga yai gagne un bonus de circonstance de +2 à la CA contre l'attaque déclencheuse. Si l'attaque est un échec, l'attaquant dois faire un test de @Check[type:reflex|dc:33]. Sur un échec, l'attaquant est @UUID[Compendium.pf2e.conditionitems.Item.eIcWbB5o3pP6OIMe]{Immobilisé} pendant 1 round alors que les plantes le maintiennet aggripé; sur un échec critique, l'attaquant est aussi mis @UUID[Compendium.pf2e.conditionitems.Item.j91X7x0XSomq8d60]{À terre}.</p>"
                },
                "jhZiio0El32uM7CS": {
                    "description": "<p>Le taïga yai prend l'apparence d'un @UUID[Compendium.pf2e.pathfinder-bestiary-2.Actor.W1OXnXGF22uybovO]{Géant de la taïga}. Ça ne change pas sa vitesse ou l'attaque et les dégâts de ses Frappes.</p>\n<hr />\n<p>@Localize[PF2E.NPC.Abilities.Glossary.ChangeShape]</p>"
                },
                "owEhZQazHR2YiCJ4": {
                    "name": "Fist (Poing)"
                },
                "qVvGOrI5DbUvbKhA": {
                    "name": "Innate Primal Spells (Sorts primordiaux innés)"
                },
                "sZ9Bz6DNeqtWdq6e": {
                    "name": "Speak with Animals (Constant) (Communication avec les animaux (constant))"
                },
                "splf2Bg9krRw5Scf": {
                    "name": "Return to Nature (Retour à la nature)",
                    "description": "<p>Le taïga yai ordonne aux plantes souterraines et aux racines de traîner une créature dans les 18 m dans le sol. La cible doit réussir un test de @Check[type:fortitude|dc:35] ou devenir @UUID[Compendium.pf2e.conditionitems.Item.eIcWbB5o3pP6OIMe]{Immobilisé} pendant [[/br 1d4 #rounds]]{1d4 rounds}. Après ce temps la, la créature s'enfonce dans la terre; elle est @UUID[Compendium.pf2e.conditionitems.Item.kWc1fhmv9LBiTuei]{Agrippé/empoigné}, commence à suffoquer, et subit @Damage[4d6[bludgeoning]] dégâts pour chaque round ou elle est enterrée. Pour @UUID[Compendium.pf2e.actionspf2e.Item.SkZAQRkLLkmBQNB9]{S'échapper} pendant qu'elle est immobilisée ou aggripée, la creature doit réussir un test de S'échapper DD 35, ou un allié adjacent doit réussir un test de @Check[type:athletics|dc:33] pour la sortir de terre.</p>"
                }
            }
        },
        "Golarion's Finest (Rajna)": {
            "name": "Golarion's Finest (Rajna) (Les Champions de Golarion (Rajna))",
            "items": {
                "DKsQM7WbtcPBTDCg": {
                    "name": "Focus Spells (Sorts focalisés)"
                },
                "JaJJTCW8WSMz6nFc": {
                    "name": "Flurry of Blows (Déluge de coups)",
                    "description": "<p>Rajna effectue deux Frappes à mains nues ou deux Frappes avec une arme de moine. Si les deux touchent la même créature, faites la somme de ses dégâts avant d'appliquer les résistances et les faiblesses.</p>"
                },
                "R18obny87brojB7E": {
                    "name": "Powerful Fists (Poings puissant)",
                    "description": "<p>Les poings de Rajna sont considérés comme étant en fer froid et en argent et ne subissent pas de pénalité pour les attaques non-létales.</p>"
                },
                "SDc0i4HEPHX9vIGF": {
                    "name": "Bracers of Armor I (Bandes de force)",
                    "description": "<p>Décorées de gemmes transparentes, ces épaisses bandes de métal dégagent une couche de force inflexible sur votre corps. Cette force vous accorde un bonus d'objet de +1 à la CA et aux jets de sauvegarde et un modificateur de Dextérité de +5 en tant qu'armure. Vous pouvez fixer des talismans aux bandes comme s'il s'agissait d'une armure légère.</p>\n<hr />\n<p><strong>Activation — Retour de force</strong> <span class=\"action-glyph\">R</span> (force, manipulation)</p>\n<p><strong>Déclencheur</strong> Une créature obtient un échec critique avec une Frappe au corps-à-corps</p>\n<hr />\n<p><strong>Effet</strong> Vous Poussez la créature en utilisant le modificateur d'Athlétisme des bandes de [[/r d20+14]]{+14}.</p>"
                },
                "TwyDnVHbjPm7365q": {
                    "name": "Bo Staff (Bô)"
                },
                "WsYJheMbLRrldd9p": {
                    "name": "Knocking Sweep (Balayage étourdissant)",
                    "description": "<p>Rajna fait tournoyer son arme dans un mouvement de balayage circulaire. Il fait un test d'Athlétisme pour faire un @UUID[Compendium.pf2e.actionspf2e.Item.ge56Lu1xXVFYUnLP]{Croc-en-jambe} à n'importe quel nombre de créature dans son allonge. Chaque test compte pour la pénalite d'attaque multiple de l'adepte, mais la pénalité d'attaque multiple n'augmente qu'après que toutes les attaques est étés réalisées.</p>"
                },
                "XbUbNlmwW7qrp1Mh": {
                    "name": "Dart (Fléchette)"
                },
                "XtzogVngDP2ov4QI": {
                    "name": "Reach Beyond (Aller au-delà)",
                    "description": "<p>Rajna focalise ses pouvoirs ki pour plier la réalité immédiate et atteindre un adversaire distant. Elle fait une Frappe à mains nues contre une créature à 4,5 m.</p>"
                },
                "aQaobvM2ryEesCVX": {
                    "name": "Punch Down (Coup bas)",
                    "description": "<p>Rajna inflige 2d10 dégâts supplémentaires aux créatures @UUID[Compendium.pf2e.conditionitems.Item.j91X7x0XSomq8d60]{À terre}.</p>"
                },
                "cyj7OV8bSU34zM8R": {
                    "name": "+1 Striking Handwraps of Mighty Blows (Bandelettes de coups puissants de frappe +1)"
                },
                "xYgeYqc3OddCmnPf": {
                    "name": "Fist (Poing)"
                }
            }
        },
        "Arms of Balance (Ranya Shibhatesh)": {
            "name": "Arms of Balance (Ranya Shibhatesh) (Bras de l'équilibre (Ranya Shibhatesh))",
            "blurb": "Moine humaine",
            "cadetails": "37 vs. attaques à distance",
            "items": {
                "9PkEInCl5Jve7sCu": {
                    "name": "Flurry of Blows (Déluge de coups)",
                    "description": "<p>Le moine fait deux Frappes avec des poings ou avec une arme de moine. Si les deux touchent la même créature, ajoutez leurs dégâts lorsqu'il s'agit de résistance et de faiblesse.</p>"
                },
                "Ck8A38JRQKr8v1FJ": {
                    "name": "Bracers of Armor II (Bandes de force supérieures)",
                    "description": "<p>Décorées de gemmes transparentes, ces épaisses bandes de métal dégagent une couche de force inflexible sur votre corps. Cette force vous accorde un bonus d'objet de +2 à la CA et aux jets de sauvegarde et un modificateur de Dextérité de +5 en tant qu'armure. Vous pouvez fixer des talismans aux bandes comme s'il s'agissait d'une armure légère.</p>\n<hr />\n<p><strong>Activation — Retour de force</strong> <span class=\"action-glyph\">R</span> (force, manipulation)</p>\n<p><strong>Déclencheur</strong> Une créature obtient un échec critique avec une Frappel au corps-à-corps</p>\n<hr />\n<p><strong>Effet</strong> Vous Poussez la créature en utilisant le modificateur d'Athlétisme des bandes de [[/r d20+21]]{+21}.</p>"
                },
                "FwRqVxAVssxx8z27": {
                    "name": "Fist (Poing)"
                },
                "LbTt0cEbX1vHiPcI": {
                    "name": "Focus Spells (Sorts focalisés)"
                },
                "X5uAgkp3zxAGNKah": {
                    "name": "Tornado Lunge (Fente Tornade)"
                },
                "aXz93WXQY0qGeLwp": {
                    "name": "+2 Greater Striking Shock Handwraps of Mighty Blows (Bandelettes de coups puissants de foudre et de frappe supérieure +2)"
                },
                "ikXFKhjiVrAnIQMw": {
                    "name": "Draw of the Aurora (Attraction de l'aurore)",
                    "description": "<p>Le moine expire un puissant souffle d'air, dont l'effet dépend du type d'énergie avec lequel il est en harmonie. Le moine ne peux pas utiliser cette capacité à nouveau avant [[/br 1d4 #Recharge Draw of the Aurora]]{1d4 rounds}.</p>\n<p>Ranya libère quatre éclairs, électrifiant et magnétisant les créatures autour d'elle. Quatre @Template[type:line|distance:60] d'électricités s'étendent de l'espace de Ranya, un dans chaque direction cardinale, infligeant @Damage[4d12[electricity]] dégâts. Toutes les créatures dans la zone affectée doivent faire un test de @Check[type:reflex|dc:33|traits:damaging-effect]. Si cette capacité fait briller une créature non détectée, cette créature devient à la place cachée pour toutes les créatures qui peuvent voir une partie de son espace (même si elle est Invisible ou Se Cache).</p>\n<hr />\n<p><strong>Succès critique</strong> La créature n'est pas affectée.</p>\n<p><strong>Succès</strong> La créature subit la moitié des dégâts, brille jusqu'à la fin du tour de la moine, et est tirée de 1,5 m vers Ranya.</p>\n<p><strong>Échec</strong> La créature subit la totalité des dégâts, brille jusqu'à la fin du prochain tour de la moine, et est tirée de 4,5 m vers Ranya.</p>\n<p><strong>Échec critique</strong> La créature subit le double des dégâts, brille pendant 1 minute, et est tirée de 9 m vers Ranya.</p>"
                },
                "sDZ4Ni8K7NK1hq7V": {
                    "name": "Wind Crash (Vents fracassants)"
                }
            }
        },
        "Kas Xi Rai": {
            "name": "Kas Xi Rai",
            "blurb": "Criminelle Tian-Shu de haut rang",
            "cadetails": "42 vs. réactions et attaques d'arme à distance",
            "items": {
                "0h3Hzq30mCIzXcop": {
                    "name": "Focus Spells (Sort focalisés)"
                },
                "11HPHRUkwye0ljJh": {
                    "name": "Crime Lore (Connaissance en crime)"
                },
                "3AN9w8tsz241tk9u": {
                    "name": "Tangled Forest Stance (Posture de la forêt enchevêtrée)",
                    "description": "<p>Kas Xi Rai étend ses bras et rentre dans posture mortelle ressemblant à un arbre. Tant qu'elle est dans cette posture, Kas Xi Rai peut utiliser le Croc-en-jambe de la forêt enchevêtrée, le Labourage de la forêt enchevêtrée, et peux faire des Frappes de Flagellation de la branche avec ses poings.</p>"
                },
                "ARV7fyOKOhXKGuJe": {
                    "description": "<p>Décorées de gemmes transparentes, ces épaisses bandes de métal dégagent une couche de force inflexible sur votre corps. Cette force vous accorde un bonus d'objet de +2 à la CA et aux jets de sauvegarde et un modificateur de Dextérité de +5 en tant qu'armure. Vous pouvez fixer des talismans aux bandes comme s'il s'agissait d'une armure légère.</p>\n<hr />\n<p><strong>Activation — Retour de force</strong> <span class=\"action-glyph\">R</span> (force, manipulation)</p>\n<p><strong>Déclencheur</strong> Une créature obtient un échec critique avec une Frappel au corps-à-corps</p>\n<hr />\n<p><strong>Effet</strong> Vous Poussez la créature en utilisant le modificateur d'Athlétisme des bandes de [[/r d20+21]]{+21}.</p>"
                },
                "FN1jPZvyzmDeGbK1": {
                    "name": "Lashing Branch (Flagellation de la branche)"
                },
                "WvZLWpqya6dXbIOg": {
                    "name": "Flurry of Blows (Déluge de coups)",
                    "description": "<p>Faites deux Frappes à mains nues. Si les deux touchent la même créature, faites la somme de leurs dégâts avant d'appliquer les résistances et les faiblesses. Vous appliquez votre pénalité d'attaques multiples à ces Frappes comme à l'accoutumée. Étant donné que déluge de coups a le trait sophistication, vous ne pouvez l'utiliser qu'une seule fois par tour.</p>"
                },
                "XIcgtyDG2R4Ita9b": {
                    "name": "AC 42 vs. Reactions and Ranged Weapon Attacks (CA 42 vs. réactions et attaque d'arme à distance)"
                },
                "aTjYL60fDsG2Dzsq": {
                    "name": "+2 Gerater Striking Greater Corrosive Handwraps of Mighty Blows (Bandelettes de coups puissants de corrosion supérieure de frappe supérieure +2)"
                },
                "gRldPaampXuW50sz": {
                    "name": "Tangled Forest Rake (Labourage de la forêt enchevêtrée)",
                    "description": "<p>Kas Xi Rai fait une attaque de Flagellation de la branche. Si elle touche et inflige des dégâts, elle force la cible à se déplacer de 1.5 m dans un espace de son allonge.</p>"
                },
                "iolvE2dOfUz57ljw": {
                    "name": "Fist (Poing)"
                },
                "kJ78e3R1iGB8OqPY": {
                    "name": "Exhausting Flurry (Déluge épuisant)",
                    "description": "<p>Quand Kas Xi Rai cible la même créature avec deux Frappes de son Déluge de coups et qu'au moins l'une des Frappe touche et inflige des dégâts, la cible doit réussir un jet de @Check[type:fortitude|dc:39] ou devenir @UUID[Compendium.pf2e.conditionitems.Item.MIRkyAjyBeXivMa7]{Affaibli 1} et subir une pénalité de -1.5 m à sa vitesse terrestre tant qu'elle est affaiblie. Sur un échec critique, la créature est @UUID[Compendium.pf2e.conditionitems.Item.MIRkyAjyBeXivMa7]{Affaiblie 2} et subit une pénalité à sa vitesse terrestre de - 3 m tant qu'elle est affaiblie.</p>"
                },
                "n3rhHu2WPvGH8Mkv": {
                    "name": "Tangled Forest Trip (Croc-en-jambe de la forêt enchevêtrée)",
                    "description": "<p><strong>Conditions</strong> Kas Xi Rai est dans la posture de la forêt enchevêtrée</p>\n<p><strong>Déclencheur</strong> Une créature sort d'un espace dans l'allonge de Kas Xi Rai</p>\n<hr />\n<p><strong>Effet</strong> La créature délancheuse fait un test de @Check[type:reflex|dc:37], @Check[type:acrobatics|dc:37], ou de @Check[type:athletics|dc:37]. Sur un échec, la créature @UUID[Compendium.pf2e.conditionitems.Item.eIcWbB5o3pP6OIMe]{Immobilisée} pour cette action.</p>"
                },
                "sfDwDgTbBW9im7Bc": {
                    "description": "<p>Boire ce liquide noir et mat vous rend indéctables aux divinations.</p>\n<p>Vous obtenez les même effet que le sort @UUID[Compendium.pf2e.spells-srd.Item.C2w3YfBKjIRS07DP]{Esprit dissimulé}, mais sans le bonus contre les effets mentaux. Vous obtenez aussi les effet d'@UUID[Compendium.pf2e.spells-srd.Item.XXqE1eY3w3z6xJCB]{Invisibility} intensifiés au rang 4, qui protège contre les sort de @UUID[Compendium.pf2e.spells-srd.Item.jwK43yKsHTkJQvQ9]{Voir l'invisible} de rang 8 ou moins, et a un DD de 36 contre @UUID[Compendium.pf2e.spells-srd.Item.uqlxMQQeSGWEVjki]{Vision véritable}.</p>\n<p>Les effets de la potion durent 10 minutes.</p>"
                }
            }
        },
        "Golarion's Finest (Jun)": {
            "name": "Golarion's Finest (Jun) (Les Champions de Golarion (Jun))",
            "items": {
                "0lk4xOp0EFCEtvBd": {
                    "name": "+1 Striking Handwraps of Mighty Blows (Bandelettes de coups puissants de frappe +1)"
                },
                "DKsQM7WbtcPBTDCg": {
                    "name": "Focus Spells (Sorts focalisés)"
                },
                "JaJJTCW8WSMz6nFc": {
                    "name": "Flurry of Blows (Déluge de coups)",
                    "description": "<p>Jun effectue deux Frappes à mains nues ou deux Frappes avec une arme de moine. Si les deux touchent la même créature, faites la somme de ses dégâts avant d'appliquer les résistances et les faiblesses.</p>"
                },
                "R18obny87brojB7E": {
                    "name": "Powerful Fists (Poings puissants)",
                    "description": "<p>Les poings de Jun sont considérés comme étant en fer froid et en argent et ne subissent pas de pénalité pour les attaques non-létales.</p>"
                },
                "SDc0i4HEPHX9vIGF": {
                    "name": "Bracers of Armor I (Bandes de force)",
                    "description": "<p>Décorées de gemmes transparentes, ces épaisses bandes de métal dégagent une couche de force inflexible sur votre corps. Cette force vous accorde un bonus d'objet de +1 à la CA et aux jets de sauvegarde et un modificateur de Dextérité de +5 en tant qu'armure. Vous pouvez fixer des talismans aux bandes comme s'il s'agissait d'une armure légère.</p>\n<hr />\n<p><strong>Activation — Retour de force</strong> <span class=\"action-glyph\">R</span> (force, manipulation)</p>\n<p><strong>Déclencheur</strong> Une créature obtient un échec critique avec une Frappe au corps-à-corps</p>\n<hr />\n<p><strong>Effet</strong> Vous Poussez la créature en utilisant le modificateur d'Athlétisme des bandes de [[/r d20+14]]{+14}.</p>"
                },
                "TwyDnVHbjPm7365q": {
                    "name": "Bo Staff (Bô)"
                },
                "WsYJheMbLRrldd9p": {
                    "name": "Knocking Sweep (Balayage étourdissant)",
                    "description": "<p>Jun fait tournoyer son arme dans un mouvement de balayage circulaire. Il fait un test d'Athlétisme pour faire un @UUID[Compendium.pf2e.actionspf2e.Item.ge56Lu1xXVFYUnLP]{Croc-en-jambe} à n'importe quel nombre de créature dans son allonge. Chaque test compte pour la pénalite d'attaque multiple de l'adepte, mais la pénalité d'attaque multiple n'augmente qu'après que toutes les attaques est étés réalisées.</p>"
                },
                "XbUbNlmwW7qrp1Mh": {
                    "name": "Dart (Fléchette)"
                },
                "aQaobvM2ryEesCVX": {
                    "name": "Punch Down (Coup bas)",
                    "description": "<p>Jun inflige 2d10 dégâts supplémentaires aux créatures @UUID[Compendium.pf2e.conditionitems.Item.j91X7x0XSomq8d60]{À terre}.</p>"
                },
                "cS2N0kbpxZevvMss": {
                    "name": "Powerful Sweep (Balayage puissant)",
                    "description": "<p>Jun vise pour faire un balayage à un adversaire. Jun fait une Frappe à mains nues. Si la Frappe touche, la créature est poussé de 1,5 m (3 m sur un succès critique) et est @UUID[Compendium.pf2e.conditionitems.Item.j91X7x0XSomq8d60]{À terre}.</p>"
                },
                "xYgeYqc3OddCmnPf": {
                    "name": "Fist (Poing)"
                }
            }
        },
        "Golarion's Finest (Krankkiss)": {
            "name": "Golarion's Finest (Krankkiss) (Les Champions de Golarion (Krankkiss))",
            "items": {
                "DKsQM7WbtcPBTDCg": {
                    "name": "Focus Spells (Sorts focalisés)"
                },
                "JaJJTCW8WSMz6nFc": {
                    "name": "Flurry of Blows (Déluge de coups)",
                    "description": "<p>Krankkiss effectue deux Frappes à mains nues ou deux Frappes avec une arme de moine. Si les deux touchent la même créature, faites la somme de ses dégâts avant d'appliquer les résistances et les faiblesses.</p>"
                },
                "R18obny87brojB7E": {
                    "name": "Powerful Fists (Poings puissants)",
                    "description": "<p>Les poings de Krankkiss sont considérés comme étant en fer froid et en argent et ne subissent pas de pénalité pour les attaques non-létales.</p>"
                },
                "SDc0i4HEPHX9vIGF": {
                    "name": "Bracers of Armor I (Bandes de force)",
                    "description": "<p>Décorées de gemmes transparentes, ces épaisses bandes de métal dégagent une couche de force inflexible sur votre corps. Cette force vous accorde un bonus d'objet de +1 à la CA et aux jets de sauvegarde et un modificateur de Dextérité de +5 en tant qu'armure. Vous pouvez fixer des talismans aux bandes comme s'il s'agissait d'une armure légère.</p>\n<hr />\n<p><strong>Activation — Retour de force</strong> <span class=\"action-glyph\">R</span> (force, manipulation)</p>\n<p><strong>Déclencheur</strong> Une créature obtient un échec critique avec une Frappe au corps-à-corps</p>\n<hr />\n<p><strong>Effet</strong> Vous Poussez la créature en utilisant le modificateur d'Athlétisme des bandes de [[/r d20+14]]{+14}.</p>"
                },
                "TwyDnVHbjPm7365q": {
                    "name": "Bo Staff (Bô)"
                },
                "WVxEoiUvmMZ5zpzw": {
                    "name": "+1 Striking Handwraps of Mighty Blows (Bandelettes de coups puissants de frappe +1)"
                },
                "WsYJheMbLRrldd9p": {
                    "name": "Knocking Sweep (Balayage étourdissant)",
                    "description": "<p>Krankkiss fait tournoyer son arme dans un mouvement de balayage circulaire. Il fait un test d'Athlétisme pour faire un @UUID[Compendium.pf2e.actionspf2e.Item.ge56Lu1xXVFYUnLP]{Croc-en-jambe} à n'importe quel nombre de créature dans son allonge. Chaque test compte pour la pénalite d'attaque multiple de l'adepte, mais la pénalité d'attaque multiple n'augmente qu'après que toutes les attaques est étés réalisées.</p>"
                },
                "XbUbNlmwW7qrp1Mh": {
                    "name": "Dart (Fléchette)"
                },
                "aQaobvM2ryEesCVX": {
                    "name": "Punch Down (Coup bas)",
                    "description": "<p>Krankkiss inflige 2d10 dégâts supplémentaires aux créatures @UUID[Compendium.pf2e.conditionitems.Item.j91X7x0XSomq8d60]{À terre}.</p>"
                },
                "pXu0LqSLuXDRcYsG": {
                    "name": "Electric Shroud (Brouillard électrique)",
                    "description": "<p><strong>Déclencheur</strong> Une créature attaque Krankkiss avec une attaque à mains nues.</p>\n<hr />\n<p><strong>Effet</strong> Krankkiss focalise ses pouvoirs ki pour produire de l'éléctricité. La créature déclencheuse subit @Damage[2d6[electricity]] dégâts.</p>"
                },
                "xYgeYqc3OddCmnPf": {
                    "name": "Fist (Poing)"
                }
            }
        },
        "Shino Hakusa (Level 16)": {
            "name": "Shino Hakusa (Level 16) (Shino Hakusa (Niveau 16))",
            "blurb": "Assassine Tian-Shu",
            "items": {
                "0t3YxndHb134yfo6": {
                    "name": "Fist (Poing)"
                },
                "DAJ52x6r7a8XLWgF": {
                    "description": "<p>Les frappes d'Hakusa infligent 4d6 dégâts supplémentaires de précision aux créatures @UUID[Compendium.pf2e.conditionitems.Item.AJh5ex99aV6VTggg]{Prises au déprouvu}.</p>"
                },
                "Po0SiD02SeV8i9lX": {
                    "name": "+2 Greater Striking Greater Shock Handwraps of Mighty Blows (Bandelettes de coups puissants de foudre supérieure de frappe supérieure +2)"
                },
                "WmYcYlVmIPXm2GdT": {
                    "description": "<p>Après avoir bu cette concoction effervescente, vous obtenez une vitesse de vol de 12 m pendant 1 minute.</p>\n<p>@UUID[Compendium.pf2e.equipment-effects.Item.Mf9EBLhYmZerf0nS]{Effet : Potion de vol standard}</p>"
                },
                "b1CXbdxuM0TsLGtM": {
                    "name": "Pressure Point Attack (Attaque des points de pression)",
                    "description": "<p>Hakusa porte des attaques précises qui peuvent affaiblir les mouvements de ses adversaires. Hakusa fait une Frappe de poing. Si elle touche, la cible subit les dégats normalement et doit réaliser un jet de @Check[type:fortitude|dc:38]. Quel que soit le résultat de ce test, la cible est temporairement immunisée contre l'Attaque des points de pression pendant 1 minute.</p>\n<hr />\n<p><strong>Succès critique</strong> La cible n'est pas affectée.</p>\n<p><strong>Succès</strong> Les muscles de la cible sont temporairements affaiblis. Pendant 1 round, la cible est @UUID[Compendium.pf2e.conditionitems.Item.MIRkyAjyBeXivMa7]{Affaibli 2} et doit réussir un @Check[type:flat|dc:5] lorsqu'elle essaye d'utiliser des actions avec le trait manipulation sinon l'action est perdue.</p>\n<p><strong>Échec</strong> Comme en cas de succès, mais la durée est de 1 minute.</p>\n<p><strong>Échec critique</strong> Comme en cas de succès, mais la durée est de 1 minute, avec un @Check[type:flat|dc:11] et la cible subit aussi une pénalité de statut de -3 m à sa vitesse pendant toute la durée.</p>"
                },
                "bmknajpxNBKh5qrx": {
                    "name": "Powerful Fists (Poings Puissants)",
                    "description": "<p>Les poings d'Hakusa sont considérés comme étant en fer froid et en argent et ne subissent pas de pénalité pour les attaques non-létales.</p>"
                },
                "e9QsTTUVu8r1v5Kk": {
                    "name": "Disorienting Tumble (Acrobaties désorientantes)",
                    "description": "<p>Hakusa saute autour et au-dessus de ses adversaires durant le combat. Lorsqu'elle réussit un @UUID[Compendium.pf2e.actionspf2e.Item.21WIfSu7Xd7uKqV8]{Déplacement Acrobatique} à travers l'espace d'une créature, cette créature est @UUID[Compendium.pf2e.conditionitems.Item.AJh5ex99aV6VTggg]{Prise au dépourvu} jusqu'à la fin du tour d'Hakusa.</p>"
                },
                "jCOgieyEDj0eXTnp": {
                    "name": "Shuriken"
                },
                "zHNwPjBJPQjc6zc1": {
                    "name": "Nimble Dodge (Esquive Agile)",
                    "description": "<p><strong>Déclencheur</strong> Hakusa est la cible d'une attaque au corps-à-corps ou à distance d'un adversaire qu'elle peut voir.</p>\n<hr />\n<p><strong>Effet</strong> Hakusa obtient un bonus de circonstances de +2 à la CA contre l'attaque déclencheuse.</p>"
                }
            }
        },
        "Golarion's Finest (Han)": {
            "name": "Golarion's Finest (Han) (Les Champions de Golarion (Han))",
            "items": {
                "DKsQM7WbtcPBTDCg": {
                    "name": "Focus Spells (Sorts focalisés)"
                },
                "JaJJTCW8WSMz6nFc": {
                    "name": "Flurry of Blows (Déluge de coups)",
                    "description": "<p>Han effectue deux Frappes à mains nues ou deux Frappes avec une arme de moine. Si les deux touchent la même créature, faites la somme de ses dégâts avant d'appliquer les résistances et les faiblesses.</p>"
                },
                "R18obny87brojB7E": {
                    "name": "Powerful Fists (Poings puissants)",
                    "description": "<p>Les poings de Han sont considérés comme étant en fer froid et en argent et ne subissent pas de pénalité pour les attaques non-létales.</p>"
                },
                "SDc0i4HEPHX9vIGF": {
                    "name": "Bracers of Armor I (Bandes de force)",
                    "description": "<p>Décorées de gemmes transparentes, ces épaisses bandes de métal dégagent une couche de force inflexible sur votre corps. Cette force vous accorde un bonus d'objet de +1 à la CA et aux jets de sauvegarde et un modificateur de Dextérité de +5 en tant qu'armure. Vous pouvez fixer des talismans aux bandes comme s'il s'agissait d'une armure légère.</p>\n<hr />\n<p><strong>Activation — Retour de force</strong> <span class=\"action-glyph\">R</span> (force, manipulation)</p>\n<p><strong>Déclencheur</strong> Une créature obtient un échec critique avec une Frappe au corps-à-corps</p>\n<hr />\n<p><strong>Effet</strong> Vous Poussez la créature en utilisant le modificateur d'Athlétisme des bandes de [[/r d20+14]]{+14}.</p>"
                },
                "TwyDnVHbjPm7365q": {
                    "name": "Bo Staff (Bô)"
                },
                "WsYJheMbLRrldd9p": {
                    "name": "Knocking Sweep (Balayage étourdissant)",
                    "description": "<p>Han fait tournoyer son arme dans un mouvement de balayage circulaire. Il fait un test d'Athlétisme pour faire un @UUID[Compendium.pf2e.actionspf2e.Item.ge56Lu1xXVFYUnLP]{Croc-en-jambe} à n'importe quel nombre de créature dans son allonge. Chaque test compte pour la pénalite d'attaque multiple de l'adepte, mais la pénalité d'attaque multiple n'augmente qu'après que toutes les attaques est étés réalisées.</p>"
                },
                "XbUbNlmwW7qrp1Mh": {
                    "name": "Dart (Fléchette)"
                },
                "aQaobvM2ryEesCVX": {
                    "name": "Punch Down (Coup bas)",
                    "description": "<p>Han inflige 2d10 dégâts supplémentaires aux créatures @UUID[Compendium.pf2e.conditionitems.Item.j91X7x0XSomq8d60]{À terre}.</p>"
                },
                "ncCfznWlA15FOKUs": {
                    "name": "Powerful Uppercut (Puissant uppercut)",
                    "description": "<p>Han fait un uppercut dévastateur. Il fait une Frappe à mains nues. Si il touche, la Frappe inflige @Damage[1d10[bludgeoning]] dégâts additionel et la cible doit faire un test de @Check[type:fortitude|dc:28]. Peu importe le résultat, Hans devient @UUID[Compendium.pf2e.conditionitems.Item.dfCMdR4wnpbYNTix]{Étourdi 1}.</p>\n<hr />\n<p><strong>Succès</strong> Aucun effets supplémentaire.</p>\n<p><strong>Échec</strong> La cible perd son équilibre et subit une pénalité de circonstance de -1 à tous ses jets d'attaques jusqu'à la fin de son prochain tour.</p>\n<p><strong>Échec critique</strong> Comme pour un échec, et la cible est aussi @UUID[Compendium.pf2e.conditionitems.Item.j91X7x0XSomq8d60]{À terre}.</p>"
                },
                "sQGSsY93kRlfEvqz": {
                    "name": "+1 Striking Handwraps of Mighty Blows (Bandelettes de coups puissants de frappe +1)"
                },
                "xYgeYqc3OddCmnPf": {
                    "name": "Fist (Poing)"
                }
            }
        }
    },
    "mapping": {
        "description": "system.details.publicNotes",
        "blurb": "system.details.blurb",
        "cadetails": "system.attributes.ac.details",
        "ci": "system.traits.ci.custom",
        "damageimmunity": "system.traits.di.custom",
        "damageresistance": "system.traits.dr.custom",
        "damagevulnerability": "system.traits.dv.custom",
        "hpdetails": "system.attributes.hp.details",
        "languages": "system.traits.languages.custom",
        "saves": "system.attributes.allSaves.value",
        "senses": "system.traits.senses.value",
        "speeds": "system.attributes.speed.details",
        "traits": "system.traits.traits.custom",
        "desc (hazard)": "system.details.description",
        "disable": "system.details.disable",
        "reset": "system.details.reset",
        "routine": "system.details.routine",
        "stealth": "system.attributes.stealth.details",
        "target": "system.target.value",
        "items": {
            "path": "items",
            "converter": "translateActorItems"
        }
    }
}